All Morphology: Wing Statistics
…
Plotting Data Points Across Time and Group

raw_data %>% group_by(sex, 
                  datetime) %>% 
  summarize(count = n())

## `summarise()` has grouped output by 'sex'. You can override using the `.groups` argument.

## # A tibble: 22 x 3
## # Groups:   sex [2]
##    sex   datetime count
##    <chr> <fct>    <int>
##  1 F     Apr 2013   138
##  2 F     Dec 2013   207
##  3 F     Apr 2014   128
##  4 F     Apr 2015    83
##  5 F     Dec 2016   114
##  6 F     Aug 2017   162
##  7 F     Sep 2018    97
##  8 F     May 2019   229
##  9 F     Oct 2019   108
## 10 F     Feb 2020   119
## #  with 12 more rows
…
